{
    "created": "2019-10-12 11:13:28",
    "version_dup": "1.3.22",
    "version_wp": "5.2.3",
    "version_db": "10.2.24",
    "version_php": "7.2.18",
    "version_os": "Linux",
    "dbInfo": {
        "buildMode": "PHP",
        "collationList": [
            "utf8mb4_unicode_ci",
            "utf8_general_ci"
        ],
        "isTablesUpperCase": 0,
        "isNameUpperCase": 0,
        "name": "u415783597_beibis",
        "tablesBaseCount": 35,
        "tablesFinalCount": 35,
        "tablesRowCount": "3,705",
        "tablesSizeOnDisk": "5MB",
        "varLowerCaseTables": "0",
        "version": "10.2.24",
        "versionComment": "MariaDB Server",
        "tableWiseRowCounts": {
            "wp_commentmeta": "0",
            "wp_comments": "4",
            "wp_duplicator_packages": "1",
            "wp_links": "0",
            "wp_options": "390",
            "wp_postmeta": "2557",
            "wp_posts": "256",
            "wp_social_users": "0",
            "wp_term_relationships": "256",
            "wp_term_taxonomy": "67",
            "wp_termmeta": "57",
            "wp_terms": "67",
            "wp_usermeta": "44",
            "wp_users": "2",
            "wp_wc_download_log": "0",
            "wp_wc_product_meta_lookup": "0",
            "wp_wc_tax_rate_classes": "2",
            "wp_wc_webhooks": "0",
            "wp_woocommerce_api_keys": "0",
            "wp_woocommerce_attribute_taxonomies": "0",
            "wp_woocommerce_downloadable_product_permissions": "0",
            "wp_woocommerce_log": "0",
            "wp_woocommerce_order_itemmeta": "0",
            "wp_woocommerce_order_items": "0",
            "wp_woocommerce_payment_tokenmeta": "0",
            "wp_woocommerce_payment_tokens": "0",
            "wp_woocommerce_sessions": "2",
            "wp_woocommerce_shipping_zone_locations": "1",
            "wp_woocommerce_shipping_zone_methods": "2",
            "wp_woocommerce_shipping_zones": "1",
            "wp_woocommerce_tax_rate_locations": "0",
            "wp_woocommerce_tax_rates": "0",
            "wp_wpmm_subscribers": "0",
            "wp_yith_wcwl": "0",
            "wp_yith_wcwl_lists": "1"
        }
    },
    "url_old": "http:\/\/beibis.lt",
    "opts_delete": "[\n    \"duplicator_ui_view_state\",\n    \"duplicator_package_active\",\n    \"duplicator_settings\"\n]",
    "blogname": "beibis.lt",
    "wproot": "\/home\/u415783597\/domains\/beibis.lt\/public_html\/",
    "wplogin_url": "https:\/\/beibis.lt\/wp-login.php",
    "relative_content_dir": "wp-content",
    "exportOnlyDB": 0,
    "installSiteOverwriteOn": false,
    "secure_on": 0,
    "secure_pass": "$2a$08$GUfpAySrrvO79QlBaM1iVOsKkhjvKi.JdD7NkWmXS2aRxVfd3R8Xi",
    "skipscan": false,
    "dbhost": "",
    "dbname": "",
    "dbuser": "",
    "dbpass": "",
    "mu_mode": 0,
    "wp_tableprefix": "wp_",
    "is_outer_root_wp_config_file": false,
    "is_outer_root_wp_content_dir": false,
    "installer_base_name": "installer.php",
    "package_name": "New_Package_60af8dc9743d5a8e5991_20191012111328_archive.zip",
    "package_hash": "60af8dc-12111328",
    "package_notes": ""
}